
__________      .__           __________                          .___    _____             .___     .__  .__  .__
\______   \__ __|  |   ____   \______   \_____    ______ ____   __| _/   /     \   ____   __| _/____ |  | |  | |__| ____    ____
 |       _/  |  \  | _/ __ \   |    |  _/\__  \  /  ___// __ \ / __ |   /  \ /  \ /  _ \ / __ |/ __ \|  | |  | |  |/    \  / ___\
 |    |   \  |  /  |_\  ___/   |    |   \ / __ \_\___ \\  ___// /_/ |  /    Y    (  <_> ) /_/ \  ___/|  |_|  |_|  |   |  \/ /_/  >
 |____|_  /____/|____/\___  >  |______  /(____  /____  >\___  >____ |  \____|__  /\____/\____ |\___  >____/____/__|___|  /\___  /
        \/                \/          \/      \/     \/     \/     \/          \/            \/    \/                  \//_____/

Leiden university - Centre for Innovation - Aaron Swaving

- User interface:
  http://localhost:7531/

- API docs:
  http://localhost:7531/api/v1/swagger

- API base url:
  http://localhost:7531/api/v1/

- Admin panel:
  http://localhost:7531/admin

- Shutdown:
  Press: Ctrl + c